module standup

go 1.17

require (
	github.com/alecthomas/template v0.0.0-20190718012654-fb15b899a751 // indirect
	github.com/alecthomas/units v0.0.0-20210927113745-59d0afb8317a // indirect
	gopkg.in/alecthomas/kingpin.v2 v2.2.6 // indirect
)
